Project 2: International U.S. Air Travel -
…
# A tibble: 131 × 2
   Country            PassengerCount
   <chr>                       <dbl>
 1 Mexico                   35180049
 2 Canada                   21188064
 3 United Kingdom           15140537
 4 Dominican Republic        8581475
 5 Germany                   8339729
 6 France                    7200366
 7 Netherlands               4973152
 8 Colombia                  4756091
 9 Jamaica                   4256244
10 Spain                     3898821
11 Japan                     3578798
12 South Korea               3437227
13 Italy                     3338197
14 Costa Rica                3194987
15 Panama                    3192251
# ℹ 116 more rows
…
